{"photos":{"page":1, "pages":8, "perpage":9, "total":"64", "photo":[{"id":"5227055323", "owner":"52747878@N04", "secret":"f61b2e4ef9", "server":"5089", "farm":6, "title":"Snowy Sutton 127", "ispublic":1, "isfriend":0, "isfamily":0}, {"id":"5227055181", "owner":"52747878@N04", "secret":"e69f69c3f8", "server":"5044", "farm":6, "title":"Snowy Sutton 122", "ispublic":1, "isfriend":0, "isfamily":0}, {"id":"5227650238", "owner":"52747878@N04", "secret":"c18c6cba49", "server":"5201", "farm":6, "title":"Snowy Sutton 120", "ispublic":1, "isfriend":0, "isfamily":0}, {"id":"5227650074", "owner":"52747878@N04", "secret":"a60c44450b", "server":"5285", "farm":6, "title":"Snowy Sutton 118", "ispublic":1, "isfriend":0, "isfamily":0}, {"id":"5227649916", "owner":"52747878@N04", "secret":"78bcb7cb91", "server":"5001", "farm":6, "title":"Snowy Sutton 115", "ispublic":1, "isfriend":0, "isfamily":0}, {"id":"5227649728", "owner":"52747878@N04", "secret":"f06646fc7e", "server":"5086", "farm":6, "title":"Snowy Sutton 113", "ispublic":1, "isfriend":0, "isfamily":0}, {"id":"5227649564", "owner":"52747878@N04", "secret":"87a0316fc8", "server":"5244", "farm":6, "title":"Snowy Sutton 110", "ispublic":1, "isfriend":0, "isfamily":0}, {"id":"5227054017", "owner":"52747878@N04", "secret":"6febe741bf", "server":"5208", "farm":6, "title":"Snowy Sutton 102", "ispublic":1, "isfriend":0, "isfamily":0}, {"id":"5227053839", "owner":"52747878@N04", "secret":"e7524ea808", "server":"5282", "farm":6, "title":"Snowy Sutton 095", "ispublic":1, "isfriend":0, "isfamily":0}]}, "stat":"ok"}